PreliminaryAnalysis
…
data$group<-factor(data$group,levels=c("Non-cancer","Viral Hepatitis","Cirrhosis","All HCC","0/A","B","C"))
data$log_delfi<-log10(data$score.delfi.gbm/(1-data$score.delfi.gbm))
data<-data %>% mutate(log_delfi=ifelse(is.infinite(log_delfi),7.5,log_delfi))

data$log_AFP<-log10(data$AFP)
library(ggpubr)
test<-data %>% filter(group == "All HCC")

test %>% filter(AFP >= 20) %>% filter(score.delfi.gbm>=.26)

# A tibble: 34 × 71
   id       score.delfi.gbm ...3            forveryclean Plas2avolu2e DateTransferred
   <chr>              <dbl> <chr>                  <dbl>        <dbl> <chr>          
 1 CGLI15P            0.930 HCCAK362                   1          3.9 8/27/2021      
 2 CGLI201P           0.516 HCCAK223                   1          3   6/3/2022       
 3 CGLI203P           0.859 HCCAK232 Pre LT            1          3   6/3/2022       
 4 CGLI208P           0.657 HCCAK378                   1          3   6/3/2022       
 5 CGLI209P           0.613 HCCAK384                   1          3   6/3/2022       
 6 CGLI214P           0.506 HCCAK417                   1          3.6 6/3/2022       
 7 CGLI217P           0.517 HCCAK336 W0                1          3   6/8/2022       
 8 CGLI218P           0.959 HCCAK360 W0                1          2   6/8/2022       
 9 CGLI220P           0.892 HCCAK413 W0                1          3.6 6/8/2022       
10 CGLI221P           0.729 HCCAK014                   1          2   6/8/2022       
# … with 24 more rows, and 65 more variables: HCCStatus <chr>,
#   Cirrhosisstatus <chr>, Disease <chr>, Cohort <chr>, Sex <dbl>, Age <dbl>,
#   DateCollection <chr>, BCLC <chr>, Child-Pugh <chr>, CP_group <chr>,
#   AFP <dbl>, HBV viral load <chr>, HBV load standardized <chr>, BMI <chr>,
#   Diangosis <chr>, Race <chr>, Ethnicity <chr>, Race/Ethinicity <chr>,
#   cfDNAExtractionDate <chr>, cfdnaextractionbatch <dbl>,
#   Personnel...27 <chr>, cfDNAExtracted(ng/2l) <dbl>, …

test %>% filter(AFP < 20) %>% filter(score.delfi.gbm>=.26)

# A tibble: 30 × 71
   id       score.delfi.gbm ...3            forveryclean Plas2avolu2e DateTransferred
   <chr>              <dbl> <chr>                  <dbl>        <dbl> <chr>          
 1 CGLI10P            0.957 HCCAK333 W0                1          3.6 8/27/2021      
 2 CGLI11P            0.936 HCCAK334                   1          3.7 8/27/2021      
 3 CGLI12P            0.950 HCCAK347                   1          3.8 8/27/2021      
 4 CGLI13P            0.901 HCCAK348                   1          3.8 8/27/2021      
 5 CGLI14P            0.840 HCCAK307_FU1               1          3.7 8/27/2021      
 6 CGLI17P            0.651 HCCAK366                   1          2.8 8/27/2021      
 7 CGLI18P            0.850 HCCAK372                   1          5.2 8/27/2021      
 8 CGLI1P             0.753 HCCAK172                   1          3   8/27/2021      
 9 CGLI202P           0.757 HCCAK227 Pre LT            1          2.7 6/3/2022       
10 CGLI205P           0.779 HCCAK342                   1          3   6/3/2022       
# … with 20 more rows, and 65 more variables: HCCStatus <chr>,
#   Cirrhosisstatus <chr>, Disease <chr>, Cohort <chr>, Sex <dbl>, Age <dbl>,
#   DateCollection <chr>, BCLC <chr>, Child-Pugh <chr>, CP_group <chr>,
#   AFP <dbl>, HBV viral load <chr>, HBV load standardized <chr>, BMI <chr>,
#   Diangosis <chr>, Race <chr>, Ethnicity <chr>, Race/Ethinicity <chr>,
#   cfDNAExtractionDate <chr>, cfdnaextractionbatch <dbl>,
#   Personnel...27 <chr>, cfDNAExtracted(ng/2l) <dbl>, …
…
test %>% filter(score.delfi.gbm>=.26) %>% group_by(BCLC) %>% summarize(n())

# A tibble: 4 × 2
  BCLC  `n()`
  <chr> <int>
1 0         6
2 A        13
3 B        25
4 C        20

afp<-data %>% filter(!is.na(AFP))

afp %>% filter(AFP<20 & score.delfi.gbm<=.26) %>% filter(Disease != "HCC")

# A tibble: 26 × 71
   id       score.delfi.gbm ...3      forveryclean Plas2avolu2e DateTransferred
   <chr>              <dbl> <chr>            <dbl>        <dbl> <chr>          
 1 CGLI104P          0.0314 HMN709506            1          1   11/16/2021     
 2 CGLI109P          0.0463 HMN709511            1          1   11/16/2021     
 3 CGLI118P          0.156  AK106                1          1.2 2/2/2022       
 4 CGLI119P          0.0693 AK198                1          1   2/2/2022       
 5 CGLI121P          0.0436 AK203                1          1   2/2/2022       
 6 CGLI122P          0.0172 AK201                1          1   2/2/2022       
 7 CGLI125P          0.247  AK239                1          1   2/2/2022       
 8 CGLI126P          0.0254 AK240                1          1   2/2/2022       
 9 CGLI127P          0.0606 AK243                1          1   2/2/2022       
10 CGLI128P          0.176  AK247                1          1   2/2/2022       
# … with 16 more rows, and 65 more variables: HCCStatus <chr>,
#   Cirrhosisstatus <chr>, Disease <chr>, Cohort <chr>, Sex <dbl>, Age <dbl>,
#   DateCollection <chr>, BCLC <chr>, Child-Pugh <chr>, CP_group <chr>,
#   AFP <dbl>, HBV viral load <chr>, HBV load standardized <chr>, BMI <chr>,
#   Diangosis <chr>, Race <chr>, Ethnicity <chr>, Race/Ethinicity <chr>,
#   cfDNAExtractionDate <chr>, cfdnaextractionbatch <dbl>,
#   Personnel...27 <chr>, cfDNAExtracted(ng/2l) <dbl>, …

afp %>% filter(Disease != "HCC")

# A tibble: 40 × 71
   id       score.delfi.gbm ...3      forveryclean Plas2avolu2e DateTransferred
   <chr>              <dbl> <chr>            <dbl>        <dbl> <chr>          
 1 CGLI104P          0.0314 HMN709506            1          1   11/16/2021     
 2 CGLI109P          0.0463 HMN709511            1          1   11/16/2021     
 3 CGLI117P          0.489  AK096                1          0.3 2/2/2022       
 4 CGLI118P          0.156  AK106                1          1.2 2/2/2022       
 5 CGLI119P          0.0693 AK198                1          1   2/2/2022       
 6 CGLI120P          0.325  AK200                1          1   2/2/2022       
 7 CGLI121P          0.0436 AK203                1          1   2/2/2022       
 8 CGLI122P          0.0172 AK201                1          1   2/2/2022       
 9 CGLI123P          0.342  AK204                1          1   2/2/2022       
10 CGLI124P          0.431  AK215                1          1   2/2/2022       
# … with 30 more rows, and 65 more variables: HCCStatus <chr>,
#   Cirrhosisstatus <chr>, Disease <chr>, Cohort <chr>, Sex <dbl>, Age <dbl>,
#   DateCollection <chr>, BCLC <chr>, Child-Pugh <chr>, CP_group <chr>,
#   AFP <dbl>, HBV viral load <chr>, HBV load standardized <chr>, BMI <chr>,
#   Diangosis <chr>, Race <chr>, Ethnicity <chr>, Race/Ethinicity <chr>,
#   cfDNAExtractionDate <chr>, cfdnaextractionbatch <dbl>,
#   Personnel...27 <chr>, cfDNAExtracted(ng/2l) <dbl>, …
…
